<?xml version="1.0" encoding="UTF-8" standalone="no"?> <svg xmlns="http://www.w3.org/2000/svg" xmlns:xlink="http://www.w3.org/1999/xlink" width="1331pt" height="366pt" viewBox="0.00 0.00 1331 365.6">
<g id="graph0" class="graph" transform="translate(4, 361.6000061035156)">
<title>%0</title>
<polygon fill="#ffffff" stroke="transparent" points="-4,4 -4,-361.6 1327,-361.6 1327,4 -4,4"></polygon>
<g id="clust1" class="cluster">
<title>cluster</title>
<polygon fill="#234178" fill-opacity="0.184314" stroke="#000000" points="8,-8 8,-349.6 1315,-349.6 1315,-8 8,-8"></polygon>
<text text-anchor="middle" x="661.5" y="-333" font-family="Times,serif" font-size="14.00" fill="#000000">Global</text>
</g>
<g id="clust2" class="cluster">
<title>cluster_1</title>
<polygon fill="#234178" fill-opacity="0.184314" stroke="#000000" points="494,-16 494,-250.8 785,-250.8 785,-16 494,-16"></polygon>
<text text-anchor="middle" x="639.5" y="-234.2" font-family="Times,serif" font-size="14.00" fill="#000000">CellType[ct1]</text>
</g>
<g id="clust3" class="cluster">
<title>cluster_2</title>
<polygon fill="#234178" fill-opacity="0.184314" stroke="#000000" points="158,-16 158,-250.8 382,-250.8 382,-16 158,-16"></polygon>
<text text-anchor="middle" x="270" y="-234.2" font-family="Times,serif" font-size="14.00" fill="#000000">CellType[ct2]</text>
</g>
<!-- CPM_0_1 -->
<g id="node1" class="node">
<title>CPM_0_1</title>
<g id="a_node1">">
<polygon fill="#fffea3" stroke="transparent" points="465.5,-316.8 410.5,-316.8 410.5,-258.8 465.5,-258.8 465.5,-316.8"></polygon>
<text text-anchor="start" x="422.6623" y="-295.3" font-family="times" font-size="15.00" fill="#000000">CPM</text>
<text text-anchor="start" x="434.75" y="-271.3" font-family="times" font-size="15.00" fill="#000000">1</text>
<polygon fill="#000000" stroke="#000000" points="419,-287.8 419,-287.8 458,-287.8 458,-287.8 419,-287.8"></polygon>
<polygon fill="none" stroke="#000000" points="418.5,-262.8 418.5,-312.8 457.5,-312.8 457.5,-262.8 418.5,-262.8"></polygon>
</g>
</g>
<!-- cell_center_0 -->

<!-- CPM_0_1&#45;&gt;cell_center_0 -->
<g id="edge1" class="edge">
<title style="">CPM_0_1-&gt;cell_center_1</title>
<path fill="none" stroke="#8f100d" stroke-width="3" d="M465.5409,-285.4693C498.7112,-281.7829 555.4039,-272.6295 599,-250.8 612.2264,-244.1773 625.0073,-234.0576 635.3495,-224.5888"></path>
<polygon fill="#8f100d" stroke="#8f100d" stroke-width="3" points="637.9205,-226.9737 642.7498,-217.5435 633.0938,-221.9038 637.9205,-226.9737"></polygon>
</g>
<!-- cell_type_0 -->

<!-- CPM_0_1&#45;&gt;cell_type_0 -->
<g id="edge3" class="edge">
<title style="">CPM_0_1-&gt;cell_type_1</title>
<path fill="none" stroke="#8f100d" stroke-width="3" d="M465.5324,-265.4172C481.6045,-252.3512 501.8324,-235.9066 517.9864,-222.774"></path>
<polygon fill="#8f100d" stroke="#8f100d" stroke-width="3" points="520.4674,-225.2677 526.019,-216.2438 516.0517,-219.8362 520.4674,-225.2677"></polygon>
</g>
<!-- Gnuplotter_0_100 -->

<!-- Logger_0_10 -->
<g id="edge2" class="edge">
<title style="">CPM_0_1-&gt;cell_center_2</title>
<path fill="none" stroke="#8f100d" stroke-width="3" d="M410.4591,-285.4693C377.2888,-281.7829 320.5961,-272.6295 277,-250.8 263.7736,-244.1773 250.9927,-234.0576 240.6505,-224.5888"></path>
<polygon fill="#8f100d" stroke="#8f100d" stroke-width="3" points="242.9062,-221.9038 233.2502,-217.5435 238.0795,-226.9737 242.9062,-221.9038"></polygon>
</g>
<!-- b_0 -->

<!-- b_0&#45;&gt;Gnuplotter_0_100 -->
<g id="edge4" class="edge">
<title style="">CPM_0_1-&gt;cell_type_2</title>
<path fill="none" stroke="#8f100d" stroke-width="3" d="M410.4676,-265.4172C394.3955,-252.3512 374.1676,-235.9066 358.0136,-222.774"></path>
<polygon fill="#8f100d" stroke="#8f100d" stroke-width="3" points="359.9483,-219.8362 349.981,-216.2438 355.5326,-225.2677 359.9483,-219.8362"></polygon>
</g>
<!-- b_0&#45;&gt;Logger_0_10 -->

<!-- b_0&#45;&gt;b_0 -->

<!-- b2_0 -->

<!-- b2_0&#45;&gt;Gnuplotter_0_100 -->

<!-- b2_0&#45;&gt;Logger_0_10 -->

<!-- b2_0&#45;&gt;b2_0 -->

<!-- boundary_0 -->
<g id="node2" class="node">
<title>boundary_0</title>
<g id="a_node2">
<ellipse fill="#d3d247" stroke="#000000" cx="438" cy="-42" rx="47.5177" ry="18"></ellipse>
<text text-anchor="middle" x="438" y="-37.80000000000001" font-family="Times,serif" font-size="14.00" fill="#000000">boundary</text>
</g>
</g>
<!-- boundary_0&#45;&gt;Logger_0_10 -->

<!-- cell_type_0&#45;&gt;Gnuplotter_0_100 -->
<g id="node10" class="node">
<title style="">ChangeCellType_1_1</title>
<g id="a_node10">" style="">
<polygon fill="#fffea3" stroke="transparent" points="776.5,-146 667.5,-146 667.5,-96 776.5,-96 776.5,-146" style=""></polygon>
<text text-anchor="start" x="671.6793" y="-128.5" font-family="times" font-size="15.00" fill="#000000" style="">ChangeCellType</text>
<text text-anchor="start" x="718.75" y="-104.5" font-family="times" font-size="15.00" fill="#000000" style="">1</text>
<polygon fill="#000000" stroke="#000000" points="668,-121 668,-121 777,-121 777,-121 668,-121" style=""></polygon>
<polygon fill="none" stroke="#000000" points="667.5,-96 667.5,-146 776.5,-146 776.5,-96 667.5,-96" style=""></polygon>
</g>
</g>
<!-- NeighborhoodReporter_1_10 -->
<g id="node9" class="node">
<title>NeighborhoodReporter_1_10</title>
<g id="a_node9">">
<polygon fill="#fffea3" stroke="transparent" points="649.5,-146 502.5,-146 502.5,-96 649.5,-96 649.5,-146"></polygon>
<text text-anchor="start" x="506.9375" y="-128.5" font-family="times" font-size="15.00" fill="#000000">NeighborhoodReporter</text>
<text text-anchor="start" x="569" y="-104.5" font-family="times" font-size="15.00" fill="#000000">10</text>
<polygon fill="#000000" stroke="#000000" points="503,-121 503,-121 650,-121 650,-121 503,-121"></polygon>
<polygon fill="none" stroke="#000000" points="502.5,-96 502.5,-146 649.5,-146 649.5,-96 502.5,-96"></polygon>
</g>
</g><g id="edge19" class="edge">
<title style="">celltype_ct2_size_0-&gt;ChangeCellType_1_1</title>
<path fill="none" stroke="#112c5f" stroke-width="2" d="M1105.8206,-187.7352C1096.5545,-185.7442 1087.012,-183.7602 1078,-182 976.6674,-162.2076 858.4165,-142.6411 786.9285,-131.1975"></path>
<polygon fill="#112c5f" stroke="#112c5f" stroke-width="2" points="787.1547,-127.6894 776.728,-129.569 786.0511,-134.6018 787.1547,-127.6894"></polygon>
</g>
<!-- cell_type_0&#45;&gt;NeighborhoodReporter_1_10 -->

<!-- NeighborhoodReporter_2_10 -->
<g id="node15" class="node">
<title>NeighborhoodReporter_2_10</title>
<g id="a_node15">">
<polygon fill="#fffea3" stroke="transparent" points="325.5,-146 178.5,-146 178.5,-96 325.5,-96 325.5,-146"></polygon>
<text text-anchor="start" x="182.9375" y="-128.5" font-family="times" font-size="15.00" fill="#000000">NeighborhoodReporter</text>
<text text-anchor="start" x="245" y="-104.5" font-family="times" font-size="15.00" fill="#000000">10</text>
<polygon fill="#000000" stroke="#000000" points="179,-121 179,-121 326,-121 326,-121 179,-121"></polygon>
<polygon fill="none" stroke="#000000" points="178.5,-96 178.5,-146 325.5,-146 325.5,-96 178.5,-96"></polygon>
</g>
</g><g id="edge20" class="edge">
<title style="">p_0-&gt;ChangeCellType_1_1</title>
<path fill="none" stroke="#112c5f" stroke-width="2" d="M1021.0666,-188.4263C1016.2194,-186.0601 1011.0109,-183.7591 1006,-182 932.8324,-156.3144 845.0985,-139.4772 786.6948,-130.1258"></path>
<polygon fill="#112c5f" stroke="#112c5f" stroke-width="2" points="786.9241,-126.6189 776.5016,-128.522 785.836,-133.5338 786.9241,-126.6189"></polygon>
</g>
<!-- cell_type_0&#45;&gt;NeighborhoodReporter_2_10 -->

<!-- celltype_ct1_id_0 -->
<g id="node3" class="node">
<title>celltype_ct1_id_0</title>
<ellipse fill="#d3d247" stroke="#000000" cx="82" cy="-200" rx="65.989" ry="18"></ellipse>
<text text-anchor="middle" x="82" y="-195.8" font-family="Times,serif" font-size="14.00" fill="#000000">celltype.ct1.id</text>
</g><g id="edge21" class="edge">
<title style="">size_0-&gt;ChangeCellType_1_1</title>
<path fill="none" stroke="#112c5f" stroke-width="2" d="M948.9727,-188.6796C944.1304,-186.3003 938.9476,-183.9299 934,-182 885.7727,-163.1885 829.3731,-147.2365 786.8752,-136.3685"></path>
<polygon fill="#112c5f" stroke="#112c5f" stroke-width="2" points="787.4866,-132.913 776.9336,-133.8539 785.77,-139.6993 787.4866,-132.913"></polygon>
</g>
<!-- celltype_ct1_id_0&#45;&gt;NeighborhoodReporter_2_10 -->
<g id="edge17" class="edge">
<title>celltype_ct1_id_0-&gt;NeighborhoodReporter_2_10</title>
<path fill="none" stroke="#112c5f" stroke-width="2" d="M115.5865,-184.3921C136.4365,-174.703 163.8976,-161.9417 188.7124,-150.4101"></path>
<polygon fill="#112c5f" stroke="#112c5f" stroke-width="2" points="190.4805,-153.448 198.0741,-146.0597 187.5305,-147.1 190.4805,-153.448"></polygon>
</g>
<!-- celltype_ct2_id_0 -->
<g id="node4" class="node">
<title>celltype_ct2_id_0</title>
<ellipse fill="#d3d247" stroke="#000000" cx="859" cy="-200" rx="65.989" ry="18"></ellipse>
<text text-anchor="middle" x="859" y="-195.8" font-family="Times,serif" font-size="14.00" fill="#000000">celltype.ct2.id</text>
</g><g id="edge22" class="edge">
<title style="">time_0-&gt;ChangeCellType_1_1</title>
<path fill="none" stroke="#112c5f" stroke-width="2" d="M1257.5745,-188.0795C1252.588,-185.7313 1247.2103,-183.5252 1242,-182 1158.0823,-157.4345 906.6012,-135.3397 786.8126,-125.8765"></path>
<polygon fill="#112c5f" stroke="#112c5f" stroke-width="2" points="786.9248,-122.3747 776.6816,-125.0816 786.3772,-129.3532 786.9248,-122.3747"></polygon>
</g>
<!-- celltype_ct2_id_0&#45;&gt;NeighborhoodReporter_1_10 -->
<g id="edge18" class="edge">
<title>celltype_ct2_id_0-&gt;NeighborhoodReporter_1_10</title>
<path fill="none" stroke="#112c5f" stroke-width="2" d="M811.209,-187.511C772.7638,-177.3704 717.1234,-162.4844 659.3923,-146.0822"></path>
<polygon fill="#112c5f" stroke="#112c5f" stroke-width="2" points="660.3102,-142.7045 649.7338,-143.3293 658.3914,-149.4364 660.3102,-142.7045"></polygon>
</g>
<!-- NeighborhoodReporter_1_10&#45;&gt;boundary_0 -->
<g id="edge7" class="edge">
<title>NeighborhoodReporter_1_10-&gt;boundary_0</title>
<path fill="none" stroke="#8f100d" stroke-width="3" d="M531.9565,-95.7867C513.0142,-84.9429 491.1717,-72.4389 473.3167,-62.2175"></path>
<polygon fill="#8f100d" stroke="#8f100d" stroke-width="3" points="474.797,-59.032 464.3795,-57.1013 471.3192,-65.107 474.797,-59.032"></polygon>
</g><g id="node6" class="node">
<title>p_0</title>
<g id="a_node6">
<ellipse fill="#d3d247" stroke="#000000" cx="1042" cy="-200" rx="27" ry="18"></ellipse>
<text text-anchor="middle" x="1042" y="-195.8" font-family="Times,serif" font-size="14.00" fill="#000000">p</text>
</g>
</g><g id="node5" class="node">
<title>celltype_ct2_size_0</title>
<g id="a_node5">
<ellipse fill="#d3d247" stroke="#000000" cx="1160" cy="-200" rx="73.49" ry="18"></ellipse>
<text text-anchor="middle" x="1160" y="-195.8" font-family="Times,serif" font-size="14.00" fill="#000000">celltype.ct2.size</text>
</g>
</g>
<!-- b_1 -->
<g id="node11" class="node">
<title>b_1</title>
<g id="a_node11">
<ellipse fill="#d3d247" stroke="#000000" cx="625" cy="-42" rx="27" ry="18"></ellipse>
<text text-anchor="middle" x="625" y="-37.80000000000001" font-family="Times,serif" font-size="14.00" fill="#000000">b</text>
</g>
</g>
<!-- NeighborhoodReporter_1_10&#45;&gt;b_1 -->
<g id="edge6" class="edge">
<title>NeighborhoodReporter_1_10-&gt;b_1</title>
<path fill="none" stroke="#8f100d" stroke-width="3" d="M591.7736,-95.5691C597.397,-86.5028 603.7259,-76.299 609.3398,-67.2481"></path>
<polygon fill="#8f100d" stroke="#8f100d" stroke-width="3" points="612.366,-69.0093 614.6626,-58.6664 606.4173,-65.3196 612.366,-69.0093"></polygon>
</g>
<!-- b2_1 -->
<g id="node12" class="node">
<title>b2_1</title>
<g id="a_node12">
<ellipse fill="#d3d247" stroke="#000000" cx="553" cy="-42" rx="27" ry="18"></ellipse>
<text text-anchor="middle" x="553" y="-37.80000000000001" font-family="Times,serif" font-size="14.00" fill="#000000">b2</text>
</g>
</g><g id="node7" class="node">
<title>size_0</title>
<ellipse fill="#b5b426" stroke="#000000" cx="970" cy="-200" rx="27" ry="18"></ellipse>
<text text-anchor="middle" x="970" y="-195.8" font-family="Times,serif" font-size="14.00" fill="#000000">size</text>
</g>
<!-- NeighborhoodReporter_1_10&#45;&gt;b2_1 -->
<g id="edge5" class="edge">
<title>NeighborhoodReporter_1_10-&gt;b2_1</title>
<path fill="none" stroke="#8f100d" stroke-width="3" d="M568.5961,-95.5691C566.206,-87.3598 563.5445,-78.2179 561.1064,-69.8438"></path>
<polygon fill="#8f100d" stroke="#8f100d" stroke-width="3" points="564.4325,-68.7472 558.2767,-60.1242 557.7116,-70.704 564.4325,-68.7472"></polygon>
</g>
<!-- b_1&#45;&gt;b_0 -->
<g id="edge10" class="edge">
<title style="">cell_center_1-&gt;ChangeCellType_1_1</title>
<path fill="none" stroke="#112c5f" stroke-width="2" d="M672.9817,-182.4673C679.6088,-174.1572 687.7527,-163.945 695.4853,-154.2486"></path>
<polygon fill="#112c5f" stroke="#112c5f" stroke-width="2" points="698.3432,-156.2784 701.8417,-146.2779 692.8704,-151.914 698.3432,-156.2784"></polygon>
</g>
<!-- b2_1&#45;&gt;b2_0 -->
<g id="edge13" class="edge">
<title style="">cell_type_1-&gt;NeighborhoodReporter_1_10</title>
<path fill="none" stroke="#112c5f" stroke-width="2" d="M552.8075,-182.0737C555.8098,-174.1674 559.4439,-164.5978 562.9356,-155.4029"></path>
<polygon fill="#112c5f" stroke="#112c5f" stroke-width="2" points="566.2123,-156.6331 566.4904,-146.0419 559.6682,-154.1479 566.2123,-156.6331"></polygon>
</g>
<!-- cell_center_1 -->
<g id="node13" class="node">
<title>cell_center_1</title>
<ellipse fill="#b5b426" stroke="#000000" cx="659" cy="-200" rx="50.9572" ry="18"></ellipse>
<text text-anchor="middle" x="659" y="-195.8" font-family="Times,serif" font-size="14.00" fill="#000000">cell.center</text>
</g><g id="node8" class="node">
<title>time_0</title>
<g id="a_node8">
<ellipse fill="#d3d247" stroke="#000000" cx="1279" cy="-200" rx="28.4069" ry="18"></ellipse>
<text text-anchor="middle" x="1279" y="-195.8" font-family="Times,serif" font-size="14.00" fill="#000000">time</text>
</g>
</g><g id="edge14" class="edge">
<title style="">cell_type_1-&gt;NeighborhoodReporter_2_10</title>
<path fill="none" stroke="#112c5f" stroke-width="2" d="M509.0624,-190.0746C465.763,-178.4397 392.6535,-158.7947 335.4469,-143.4228"></path>
<polygon fill="#112c5f" stroke="#112c5f" stroke-width="2" points="336.2527,-140.0152 325.687,-140.8002 334.4361,-146.7754 336.2527,-140.0152"></polygon>
</g>
<!-- cell_center_1&#45;&gt;cell_center_0 -->

<!-- cell_center_1&#45;&gt;NeighborhoodReporter_1_10 -->
<g id="edge11" class="edge">
<title>cell_center_1-&gt;NeighborhoodReporter_1_10</title>
<path fill="none" stroke="#112c5f" stroke-width="2" d="M640.9902,-182.8582C631.848,-174.1566 620.4381,-163.2965 609.7413,-153.1152"></path>
<polygon fill="#112c5f" stroke="#112c5f" stroke-width="2" points="612.1429,-150.5691 602.4864,-146.2099 607.3168,-155.6395 612.1429,-150.5691"></polygon>
</g>
<!-- cell_type_1 -->
<g id="node14" class="node">
<title>cell_type_1</title>
<g id="a_node14">
<ellipse fill="#d3d247" stroke="#000000" cx="546" cy="-200" rx="44.0377" ry="18"></ellipse>
<text text-anchor="middle" x="546" y="-195.8" font-family="Times,serif" font-size="14.00" fill="#000000">cell.type</text>
</g>
</g>
<!-- cell_type_1&#45;&gt;cell_type_0 -->

<!-- b_2 -->
<g id="node16" class="node">
<title>b_2</title>
<g id="a_node16">
<ellipse fill="#d3d247" stroke="#000000" cx="294" cy="-42" rx="27" ry="18"></ellipse>
<text text-anchor="middle" x="294" y="-37.80000000000001" font-family="Times,serif" font-size="14.00" fill="#000000">b</text>
</g>
</g>
<!-- NeighborhoodReporter_2_10&#45;&gt;b_2 -->
<g id="edge9" class="edge">
<title>NeighborhoodReporter_2_10-&gt;b_2</title>
<path fill="none" stroke="#8f100d" stroke-width="3" d="M265.5203,-95.5691C270.1694,-86.8241 275.3813,-77.021 280.063,-68.2149"></path>
<polygon fill="#8f100d" stroke="#8f100d" stroke-width="3" points="283.2795,-69.6206 284.8834,-59.1479 277.0987,-66.3346 283.2795,-69.6206"></polygon>
</g><g id="edge15" class="edge">
<title style="">cell_type_2-&gt;NeighborhoodReporter_1_10</title>
<path fill="none" stroke="#112c5f" stroke-width="2" d="M364.724,-188.8488C397.8458,-178.2121 449.0177,-161.7789 492.7044,-147.7494"></path>
<polygon fill="#112c5f" stroke="#112c5f" stroke-width="2" points="494.0261,-151.0011 502.477,-144.6111 491.8857,-144.3363 494.0261,-151.0011"></polygon>
</g>
<!-- b2_2 -->
<g id="node17" class="node">
<title>b2_2</title>
<g id="a_node17">
<ellipse fill="#d3d247" stroke="#000000" cx="222" cy="-42" rx="27" ry="18"></ellipse>
<text text-anchor="middle" x="222" y="-37.80000000000001" font-family="Times,serif" font-size="14.00" fill="#000000">b2</text>
</g>
</g><g id="edge16" class="edge">
<title style="">cell_type_2-&gt;NeighborhoodReporter_2_10</title>
<path fill="none" stroke="#112c5f" stroke-width="2" d="M313.4582,-183.2461C304.8938,-174.5719 294.1375,-163.6777 284.0273,-153.4379"></path>
<polygon fill="#112c5f" stroke="#112c5f" stroke-width="2" points="286.3369,-150.7955 276.8204,-146.1386 281.3557,-155.7136 286.3369,-150.7955"></polygon>
</g>
<g id="edge8" class="edge">
<title>NeighborhoodReporter_2_10-&gt;b2_2</title>
<path fill="none" stroke="#8f100d" stroke-width="3" d="M242.3427,-95.5691C239.1417,-87.1399 235.5674,-77.7275 232.3187,-69.1725"></path>
<polygon fill="#8f100d" stroke="#8f100d" stroke-width="3" points="235.5186,-67.74 228.6964,-59.6339 228.9746,-70.2251 235.5186,-67.74"></polygon>
</g><g id="node18" class="node">
<title>cell_center_2</title>
<ellipse fill="#b5b426" stroke="#000000" cx="217" cy="-200" rx="50.9572" ry="18"></ellipse>
<text text-anchor="middle" x="217" y="-195.8" font-family="Times,serif" font-size="14.00" fill="#000000">cell.center</text>
</g><g id="edge12" class="edge">
<title>cell_center_2-&gt;NeighborhoodReporter_2_10</title>
<path fill="none" stroke="#112c5f" stroke-width="2" d="M224.942,-182.0737C228.4448,-174.1674 232.6845,-164.5978 236.7582,-155.4029"></path>
<polygon fill="#112c5f" stroke="#112c5f" stroke-width="2" points="240.0548,-156.6025 240.9055,-146.0419 233.6548,-153.767 240.0548,-156.6025"></polygon>
</g><g id="node19" class="node">
<title>cell_type_2</title>
<g id="a_node19">
<ellipse fill="#d3d247" stroke="#000000" cx="330" cy="-200" rx="44.0377" ry="18"></ellipse>
<text text-anchor="middle" x="330" y="-195.8" font-family="Times,serif" font-size="14.00" fill="#000000">cell.type</text>
</g>
</g></g>
</svg>