<?xml version="1.0" encoding="UTF-8" standalone="no"?>
<!DOCTYPE svg PUBLIC "-//W3C//DTD SVG 1.1//EN"
 "http://www.w3.org/Graphics/SVG/1.1/DTD/svg11.dtd">
<!-- Generated by graphviz version 2.50.0 (20211204.2007)
 -->
<!-- Pages: 1 -->
<svg width="1576pt" height="929pt"
 viewBox="0.00 0.00 1576.00 929.00" xmlns="http://www.w3.org/2000/svg" xmlns:xlink="http://www.w3.org/1999/xlink">
<g id="graph0" class="graph" transform="scale(1 1) rotate(0) translate(4 925)">
<polygon fill="white" stroke="transparent" points="-4,4 -4,-925 1572,-925 1572,4 -4,4"/>
<g id="clust1" class="cluster">
<title>cluster</title>
<polygon fill="#234178" fill-opacity="0.184314" stroke="black" points="8,-8 8,-913 1560,-913 1560,-8 8,-8"/>
<text text-anchor="middle" x="784" y="-897.8" font-family="Times,serif" font-size="14.00">Global</text>
</g>
<g id="clust2" class="cluster">
<title>cluster_1</title>
<polygon fill="#234178" fill-opacity="0.184314" stroke="black" points="676,-605 676,-818 1162,-818 1162,-605 676,-605"/>
<text text-anchor="middle" x="919" y="-802.8" font-family="Times,serif" font-size="14.00">CellType[CTL]</text>
</g>
<g id="clust3" class="cluster">
<title>cluster_cpm1</title>
<polygon fill="#234178" fill-opacity="0.184314" stroke="black" points="1060,-712 1060,-787 1154,-787 1154,-712 1060,-712"/>
<text text-anchor="middle" x="1107" y="-771.8" font-family="Times,serif" font-size="14.00">CPM plugins</text>
</g>
<g id="clust5" class="cluster">
<title>cluster_3</title>
<polygon fill="#234178" fill-opacity="0.184314" stroke="black" points="80,-172 80,-787 478,-787 478,-172 80,-172"/>
<text text-anchor="middle" x="279" y="-771.8" font-family="Times,serif" font-size="14.00">CellType[target]</text>
</g>
<g id="clust6" class="cluster">
<title>cluster_cpm3</title>
<polygon fill="#234178" fill-opacity="0.184314" stroke="black" points="88,-622.5 88,-697.5 232,-697.5 232,-622.5 88,-622.5"/>
<text text-anchor="middle" x="160" y="-682.3" font-family="Times,serif" font-size="14.00">CPM plugins</text>
</g>
<g id="clust7" class="cluster">
<title>cluster_5</title>
<polygon fill="#234178" fill-opacity="0.184314" stroke="black" points="308,-244 308,-354 384,-354 384,-244 308,-244"/>
<text text-anchor="middle" x="346" y="-338.8" font-family="Times,serif" font-size="14.00">System</text>
</g>
<g id="clust8" class="cluster">
<title>cluster_6</title>
<polygon fill="#234178" fill-opacity="0.184314" stroke="black" points="88,-244 88,-354 182,-354 182,-244 88,-244"/>
<text text-anchor="middle" x="135" y="-338.8" font-family="Times,serif" font-size="14.00">System</text>
</g>
<g id="clust9" class="cluster">
<title>cluster_7</title>
<polygon fill="#234178" fill-opacity="0.184314" stroke="black" points="190,-244 190,-354 300,-354 300,-244 190,-244"/>
<text text-anchor="middle" x="245" y="-338.8" font-family="Times,serif" font-size="14.00">System</text>
</g>
<g id="clust10" class="cluster">
<title>cluster_4</title>
<polygon fill="#234178" fill-opacity="0.184314" stroke="black" points="1170,-712 1170,-787 1552,-787 1552,-712 1170,-712"/>
<text text-anchor="middle" x="1361" y="-771.8" font-family="Times,serif" font-size="14.00">CellType[well]</text>
</g>
<!-- Gnuplotter_0_60 -->
<g id="node1" class="node">
<title>Gnuplotter_0_60</title>
<g id="a_node1"><a xlink:href="morph://MorpheusModel/Analysis/Gnuplotter" xlink:title="&lt;TABLE&gt;">
<polygon fill="#fffea3" stroke="transparent" points="652.5,-64 573.5,-64 573.5,-16 652.5,-16 652.5,-64"/>
<text text-anchor="start" x="578" y="-48" font-family="times" font-size="15.00">Gnuplotter</text>
<text text-anchor="start" x="605" y="-25" font-family="times" font-size="15.00">60</text>
<polygon fill="black" stroke="black" points="574,-40 574,-40 653,-40 653,-40 574,-40"/>
<polygon fill="none" stroke="black" points="573.5,-16 573.5,-64 652.5,-64 652.5,-16 573.5,-16"/>
</a>
</g>
</g>
<!-- Logger_0_60 -->
<g id="node2" class="node">
<title>Logger_0_60</title>
<g id="a_node2"><a xlink:href="morph://MorpheusModel/Analysis/Logger" xlink:title="&lt;TABLE&gt;">
<polygon fill="#fffea3" stroke="transparent" points="982.5,-64 927.5,-64 927.5,-16 982.5,-16 982.5,-64"/>
<text text-anchor="start" x="932" y="-48" font-family="times" font-size="15.00">Logger</text>
<text text-anchor="start" x="947" y="-25" font-family="times" font-size="15.00">60</text>
<polygon fill="black" stroke="black" points="928,-40 928,-40 983,-40 983,-40 928,-40"/>
<polygon fill="none" stroke="black" points="927.5,-16 927.5,-64 982.5,-64 982.5,-16 927.5,-16"/>
</a>
</g>
</g>
<!-- CPM_0_1 -->
<g id="node3" class="node">
<title>CPM_0_1</title>
<g id="a_node3"><a xlink:href="morph://MorpheusModel/CPM" xlink:title="&lt;TABLE&gt;">
<polygon fill="#fffea3" stroke="transparent" points="526,-882 468,-882 468,-826 526,-826 526,-882"/>
<text text-anchor="start" x="480" y="-862" font-family="times" font-size="15.00">CPM</text>
<text text-anchor="start" x="492.5" y="-839" font-family="times" font-size="15.00">1</text>
<polygon fill="black" stroke="black" points="476,-854 476,-854 518,-854 518,-854 476,-854"/>
<polygon fill="none" stroke="black" points="476,-830 476,-878 518,-878 518,-830 476,-830"/>
</a>
</g>
</g>
<!-- cell_center_0 -->
<g id="node5" class="node">
<title>cell_center_0</title>
<ellipse fill="#b5b426" stroke="black" cx="934" cy="-469.5" rx="47.4" ry="18"/>
<ellipse fill="none" stroke="black" cx="934" cy="-469.5" rx="51.39" ry="22"/>
<text text-anchor="middle" x="934" y="-465.8" font-family="Times,serif" font-size="14.00">cell.center</text>
</g>
<!-- CPM_0_1&#45;&gt;cell_center_0 -->
<g id="edge3" class="edge">
<title>CPM_0_1&#45;&gt;cell_center_0</title>
<path fill="none" stroke="#8f100d" stroke-width="3" d="M499.07,-825.78C502.28,-787.04 508.95,-719.77 517,-712 561.39,-669.19 609.74,-739.4 655,-697.5 685.67,-669.1 642.83,-634.93 672,-605 714.16,-561.74 750.58,-603.21 805,-577 845.79,-557.36 884.73,-522.15 908.95,-497.62"/>
<polygon fill="#8f100d" stroke="#8f100d" stroke-width="3" points="911.53,-499.99 915.98,-490.37 906.51,-495.11 911.53,-499.99"/>
</g>
<!-- cell_type_0 -->
<g id="node9" class="node">
<title>cell_type_0</title>
<ellipse fill="#d3d247" stroke="black" cx="601" cy="-648.5" rx="40.9" ry="18"/>
<ellipse fill="none" stroke="black" cx="601" cy="-648.5" rx="44.89" ry="22"/>
<text text-anchor="middle" x="601" y="-644.8" font-family="Times,serif" font-size="14.00">cell.type</text>
</g>
<!-- CPM_0_1&#45;&gt;cell_type_0 -->
<g id="edge4" class="edge">
<title>CPM_0_1&#45;&gt;cell_type_0</title>
<path fill="none" stroke="#8f100d" stroke-width="3" d="M490.86,-825.77C485.63,-795.78 481.8,-747.15 502,-712 513.94,-691.22 535.89,-676.32 556.1,-666.29"/>
<polygon fill="#8f100d" stroke="#8f100d" stroke-width="3" points="557.64,-669.43 565.21,-662.02 554.67,-663.09 557.64,-669.43"/>
</g>
<!-- Protrusion_1_1 -->
<g id="node18" class="node">
<title>Protrusion_1_1</title>
<g id="a_node18"><a xlink:href="morph://MorpheusModel/CellTypes/CellType[0]/Protrusion" xlink:title="&lt;TABLE&gt;">
<polygon fill="#fffea3" stroke="transparent" points="1145.5,-756 1068.5,-756 1068.5,-720 1145.5,-720 1145.5,-756"/>
<text text-anchor="start" x="1073" y="-734" font-family="times" font-size="15.00">Protrusion</text>
<polygon fill="none" stroke="black" points="1068.5,-725.5 1068.5,-750.5 1145.5,-750.5 1145.5,-725.5 1068.5,-725.5"/>
</a>
</g>
</g>
<!-- CPM_0_1&#45;&gt;Protrusion_1_1 -->
<g id="edge1" class="edge">
<title>CPM_0_1&#45;&gt;Protrusion_1_1</title>
<path fill="none" stroke="#38568c" stroke-dasharray="5,2" d="M526.32,-852.85C636.17,-852.08 1019.51,-847.27 1065,-818 1076.45,-810.63 1084.98,-799.05 1091.25,-787"/>
</g>
<!-- VolumeConstraint_3 -->
<g id="node26" class="node">
<title>VolumeConstraint_3</title>
<g id="a_node26"><a xlink:href="morph://MorpheusModel/CellTypes/CellType[2]/VolumeConstraint" xlink:title="&lt;TABLE&gt;">
<polygon fill="#fffea3" stroke="transparent" points="223.5,-666.5 96.5,-666.5 96.5,-630.5 223.5,-630.5 223.5,-666.5"/>
<text text-anchor="start" x="101" y="-644.5" font-family="times" font-size="15.00">VolumeConstraint</text>
<polygon fill="none" stroke="black" points="96.5,-636 96.5,-661 223.5,-661 223.5,-636 96.5,-636"/>
</a>
</g>
</g>
<!-- CPM_0_1&#45;&gt;VolumeConstraint_3 -->
<g id="edge2" class="edge">
<title>CPM_0_1&#45;&gt;VolumeConstraint_3</title>
<path fill="none" stroke="#38568c" stroke-dasharray="5,2" d="M467.92,-852.69C379.63,-851.45 119.18,-845.47 94,-818 62.16,-783.28 75.38,-755.28 94,-712 96.18,-706.94 98.99,-702.09 102.23,-697.5"/>
</g>
<!-- act_0 -->
<g id="node4" class="node">
<title>act_0</title>
<g id="a_node4"><a xlink:href="morph://MorpheusModel/Global/Field" xlink:title="act">
<ellipse fill="#d3d247" stroke="black" cx="1287" cy="-648.5" rx="27" ry="18"/>
<text text-anchor="middle" x="1287" y="-644.8" font-family="Times,serif" font-size="14.00">act</text>
</a>
</g>
</g>
<!-- act_0&#45;&gt;Gnuplotter_0_60 -->
<g id="edge13" class="edge">
<title>act_0&#45;&gt;Gnuplotter_0_60</title>
<path fill="none" stroke="#112c5f" stroke-width="2" d="M1281.03,-630.79C1263.5,-583.61 1208.12,-447.31 1125,-362 1059.47,-294.74 825.46,-214.12 763,-144 748.71,-127.96 758.19,-115.18 743,-100 720.83,-77.84 688.84,-63.18 662.14,-54.01"/>
<polygon fill="#112c5f" stroke="#112c5f" stroke-width="2" points="663.16,-50.66 652.57,-50.88 660.98,-57.32 663.16,-50.66"/>
</g>
<!-- act_0&#45;&gt;Protrusion_1_1 -->
<g id="edge14" class="edge">
<title>act_0&#45;&gt;Protrusion_1_1</title>
<path fill="none" stroke="#112c5f" stroke-width="2" d="M1286.09,-666.86C1281.22,-677.42 1271.91,-690.23 1260,-697.5 1227.29,-717.47 1211.78,-701.23 1175,-712 1168.54,-713.89 1161.85,-716.28 1155.26,-718.83"/>
<polygon fill="#112c5f" stroke="#112c5f" stroke-width="2" points="1153.72,-715.68 1145.74,-722.65 1156.32,-722.18 1153.72,-715.68"/>
</g>
<!-- cell_center_x_0 -->
<g id="node6" class="node">
<title>cell_center_x_0</title>
<ellipse fill="#d3d247" stroke="black" cx="936" cy="-380" rx="53.89" ry="18"/>
<text text-anchor="middle" x="936" y="-376.3" font-family="Times,serif" font-size="14.00">cell.center.x</text>
</g>
<!-- cell_center_0&#45;&gt;cell_center_x_0 -->
<g id="edge15" class="edge">
<title>cell_center_0&#45;&gt;cell_center_x_0</title>
<path fill="none" stroke="#38568c" stroke-dasharray="5,2" d="M934.48,-447.32C934.83,-432.25 935.29,-412.25 935.61,-398.17"/>
</g>
<!-- cell_center_y_0 -->
<g id="node7" class="node">
<title>cell_center_y_0</title>
<ellipse fill="#d3d247" stroke="black" cx="1062" cy="-380" rx="53.89" ry="18"/>
<text text-anchor="middle" x="1062" y="-376.3" font-family="Times,serif" font-size="14.00">cell.center.y</text>
</g>
<!-- cell_center_0&#45;&gt;cell_center_y_0 -->
<g id="edge16" class="edge">
<title>cell_center_0&#45;&gt;cell_center_y_0</title>
<path fill="none" stroke="#38568c" stroke-dasharray="5,2" d="M960.52,-450.37C983.81,-434.45 1017.31,-411.55 1039.36,-396.47"/>
</g>
<!-- cell_center_x_0&#45;&gt;Logger_0_60 -->
<g id="edge22" class="edge">
<title>cell_center_x_0&#45;&gt;Logger_0_60</title>
<path fill="none" stroke="#112c5f" stroke-width="2" d="M938.62,-361.73C944.98,-318 960.52,-199.33 958,-100 957.79,-91.71 957.41,-82.77 957,-74.42"/>
<polygon fill="#112c5f" stroke="#112c5f" stroke-width="2" points="960.48,-74.05 956.46,-64.25 953.49,-74.42 960.48,-74.05"/>
</g>
<!-- cell_center_y_0&#45;&gt;Logger_0_60 -->
<g id="edge23" class="edge">
<title>cell_center_y_0&#45;&gt;Logger_0_60</title>
<path fill="none" stroke="#112c5f" stroke-width="2" d="M1056.55,-361.77C1039.62,-308.31 987.78,-144.55 965.43,-73.95"/>
<polygon fill="#112c5f" stroke="#112c5f" stroke-width="2" points="968.71,-72.72 962.36,-64.24 962.04,-74.83 968.71,-72.72"/>
</g>
<!-- cell_id_0 -->
<g id="node8" class="node">
<title>cell_id_0</title>
<ellipse fill="#d3d247" stroke="black" cx="1206" cy="-648.5" rx="32.49" ry="18"/>
<ellipse fill="none" stroke="black" cx="1206" cy="-648.5" rx="36.49" ry="22"/>
<text text-anchor="middle" x="1206" y="-644.8" font-family="Times,serif" font-size="14.00">cell.id</text>
</g>
<!-- cell_id_0&#45;&gt;Logger_0_60 -->
<g id="edge24" class="edge">
<title>cell_id_0&#45;&gt;Logger_0_60</title>
<path fill="none" stroke="#112c5f" stroke-width="2" d="M1198.97,-626.8C1188.5,-594.03 1170,-528.04 1170,-470.5 1170,-470.5 1170,-470.5 1170,-197 1170,-110.29 1054.01,-66.79 992.42,-49.81"/>
<polygon fill="#112c5f" stroke="#112c5f" stroke-width="2" points="993.23,-46.41 982.67,-47.22 991.43,-53.17 993.23,-46.41"/>
</g>
<!-- cell_type_0&#45;&gt;Logger_0_60 -->
<g id="edge28" class="edge">
<title>cell_type_0&#45;&gt;Logger_0_60</title>
<path fill="none" stroke="#112c5f" stroke-width="2" d="M619.3,-628.02C628.13,-619.73 639.32,-610.68 651,-605 707.29,-577.65 747.53,-623.87 789,-577 838.18,-521.41 780.92,-309.94 815,-244 846.87,-182.32 899.67,-203.76 935,-144 941.88,-132.35 947.51,-99.55 951.03,-74.06"/>
<polygon fill="#112c5f" stroke="#112c5f" stroke-width="2" points="954.51,-74.38 952.35,-64.01 947.57,-73.47 954.51,-74.38"/>
</g>
<!-- NeighborhoodReporter_1_17479379513406501179_1 -->
<g id="node19" class="node">
<title>NeighborhoodReporter_1_17479379513406501179_1</title>
<g id="a_node19"><a xlink:href="morph://MorpheusModel/CellTypes/CellType[0]/NeighborhoodReporter" xlink:title="&lt;TABLE&gt;">
<polygon fill="#fffea3" stroke="transparent" points="844,-684 684,-684 684,-613 844,-613 844,-684"/>
<text text-anchor="start" x="688" y="-667.5" font-family="times" font-size="15.00">NeighborhoodReporter</text>
<text text-anchor="start" x="695.5" y="-645.5" font-family="times" font-style="italic" font-size="15.00">&quot;ctl contact reporter&quot;</text>
<text text-anchor="start" x="759.5" y="-621.5" font-family="times" font-size="15.00">1</text>
<polygon fill="black" stroke="black" points="684,-636.5 684,-636.5 844,-636.5 844,-636.5 684,-636.5"/>
<polygon fill="none" stroke="black" points="684,-613 684,-684 844,-684 844,-613 684,-613"/>
</a>
</g>
</g>
<!-- cell_type_0&#45;&gt;NeighborhoodReporter_1_17479379513406501179_1 -->
<g id="edge29" class="edge">
<title>cell_type_0&#45;&gt;NeighborhoodReporter_1_17479379513406501179_1</title>
<path fill="none" stroke="#112c5f" stroke-width="2" d="M646.21,-648.5C655.44,-648.5 664.68,-648.5 673.92,-648.5"/>
<polygon fill="#112c5f" stroke="#112c5f" stroke-width="2" points="673.94,-652 683.94,-648.5 673.94,-645 673.94,-652"/>
</g>
<!-- NeighborhoodReporter_3_6413275295368505243_1 -->
<g id="node25" class="node">
<title>NeighborhoodReporter_3_6413275295368505243_1</title>
<g id="a_node25"><a xlink:href="morph://MorpheusModel/CellTypes/CellType[2]/NeighborhoodReporter" xlink:title="&lt;TABLE&gt;">
<polygon fill="#fffea3" stroke="transparent" points="470,-505 310,-505 310,-434 470,-434 470,-505"/>
<text text-anchor="start" x="314" y="-488.5" font-family="times" font-size="15.00">NeighborhoodReporter</text>
<text text-anchor="start" x="331" y="-466.5" font-family="times" font-style="italic" font-size="15.00">&quot;contact.reporter&quot;</text>
<text text-anchor="start" x="385.5" y="-442.5" font-family="times" font-size="15.00">1</text>
<polygon fill="black" stroke="black" points="310,-457.5 310,-457.5 470,-457.5 470,-457.5 310,-457.5"/>
<polygon fill="none" stroke="black" points="310,-434 310,-505 470,-505 470,-434 310,-434"/>
</a>
</g>
</g>
<!-- cell_type_0&#45;&gt;NeighborhoodReporter_3_6413275295368505243_1 -->
<g id="edge30" class="edge">
<title>cell_type_0&#45;&gt;NeighborhoodReporter_3_6413275295368505243_1</title>
<path fill="none" stroke="#112c5f" stroke-width="2" d="M568.63,-633.2C542.32,-620.65 505.09,-600.73 477,-577 470.63,-571.62 445.3,-540.39 423.6,-513.13"/>
<polygon fill="#112c5f" stroke="#112c5f" stroke-width="2" points="426.27,-510.86 417.31,-505.2 420.79,-515.21 426.27,-510.86"/>
</g>
<!-- celltype_CTL_id_0 -->
<g id="node10" class="node">
<title>celltype_CTL_id_0</title>
<ellipse fill="#d3d247" stroke="black" cx="713" cy="-559" rx="66.89" ry="18"/>
<text text-anchor="middle" x="713" y="-555.3" font-family="Times,serif" font-size="14.00">celltype.CTL.id</text>
</g>
<!-- celltype_CTL_id_0&#45;&gt;NeighborhoodReporter_3_6413275295368505243_1 -->
<g id="edge34" class="edge">
<title>celltype_CTL_id_0&#45;&gt;NeighborhoodReporter_3_6413275295368505243_1</title>
<path fill="none" stroke="#112c5f" stroke-width="2" d="M663.13,-546.82C654.42,-544.88 645.45,-542.88 637,-541 567.83,-525.63 546.68,-527.01 480.08,-506.83"/>
<polygon fill="#112c5f" stroke="#112c5f" stroke-width="2" points="480.96,-503.44 470.37,-503.84 478.9,-510.13 480.96,-503.44"/>
</g>
<!-- celltype_target_id_0 -->
<g id="node11" class="node">
<title>celltype_target_id_0</title>
<ellipse fill="#d3d247" stroke="black" cx="596" cy="-738" rx="70.39" ry="18"/>
<text text-anchor="middle" x="596" y="-734.3" font-family="Times,serif" font-size="14.00">celltype.target.id</text>
</g>
<!-- celltype_target_id_0&#45;&gt;NeighborhoodReporter_1_17479379513406501179_1 -->
<g id="edge35" class="edge">
<title>celltype_target_id_0&#45;&gt;NeighborhoodReporter_1_17479379513406501179_1</title>
<path fill="none" stroke="#112c5f" stroke-width="2" d="M629.41,-722.03C644.94,-714.89 663.56,-706.05 680,-697.5 685.16,-694.82 690.45,-691.99 695.76,-689.09"/>
<polygon fill="#112c5f" stroke="#112c5f" stroke-width="2" points="697.6,-692.07 704.67,-684.18 694.22,-685.94 697.6,-692.07"/>
</g>
<!-- celltype_target_size_0 -->
<g id="node12" class="node">
<title>celltype_target_size_0</title>
<g id="a_node12"><a xlink:href="morph://MorpheusModel/CellTypes/CellType[2]" xlink:title="celltype.target.size">
<ellipse fill="#d3d247" stroke="black" cx="849" cy="-122" rx="77.19" ry="18"/>
<text text-anchor="middle" x="849" y="-118.3" font-family="Times,serif" font-size="14.00">celltype.target.size</text>
</a>
</g>
</g>
<!-- celltype_target_size_0&#45;&gt;Logger_0_60 -->
<g id="edge36" class="edge">
<title>celltype_target_size_0&#45;&gt;Logger_0_60</title>
<path fill="none" stroke="#112c5f" stroke-width="2" d="M870.71,-104.62C884.63,-94.11 903.05,-80.21 919.12,-68.08"/>
<polygon fill="#112c5f" stroke="#112c5f" stroke-width="2" points="921.39,-70.75 927.27,-61.93 917.18,-65.16 921.39,-70.75"/>
</g>
<!-- ctl_attn_0 -->
<g id="node13" class="node">
<title>ctl_attn_0</title>
<ellipse fill="#d3d247" stroke="black" cx="863" cy="-287.5" rx="35.18" ry="18"/>
<ellipse fill="none" stroke="black" cx="863" cy="-287.5" rx="39.19" ry="22"/>
<text text-anchor="middle" x="863" y="-283.8" font-family="Times,serif" font-size="14.00">ctl.attn</text>
</g>
<!-- ctl_attn_0&#45;&gt;Gnuplotter_0_60 -->
<g id="edge37" class="edge">
<title>ctl_attn_0&#45;&gt;Gnuplotter_0_60</title>
<path fill="none" stroke="#112c5f" stroke-width="2" d="M823.94,-284.82C746.01,-279.12 572.24,-254.04 497,-144 485.96,-127.86 486.78,-116.67 497,-100 511.6,-76.2 539.14,-61.62 563.72,-52.92"/>
<polygon fill="#112c5f" stroke="#112c5f" stroke-width="2" points="564.92,-56.21 573.32,-49.75 562.73,-49.56 564.92,-56.21"/>
</g>
<!-- ctl_attn_0&#45;&gt;Logger_0_60 -->
<g id="edge38" class="edge">
<title>ctl_attn_0&#45;&gt;Logger_0_60</title>
<path fill="none" stroke="#112c5f" stroke-width="2" d="M879.14,-267.29C899.91,-241.27 935.09,-192.48 950,-144 956.95,-121.41 958.06,-94.74 957.51,-74.19"/>
<polygon fill="#112c5f" stroke="#112c5f" stroke-width="2" points="961,-73.91 957.09,-64.06 954,-74.2 961,-73.91"/>
</g>
<!-- ctl_contact_length_0 -->
<g id="node14" class="node">
<title>ctl_contact_length_0</title>
<g id="a_node14"><a xlink:href="morph://MorpheusModel/Global/Variable" xlink:title="ctl.contact.length">
<ellipse fill="#d3d247" stroke="black" cx="557" cy="-559" rx="71.49" ry="18"/>
<text text-anchor="middle" x="557" y="-555.3" font-family="Times,serif" font-size="14.00">ctl.contact.length</text>
</a>
</g>
</g>
<!-- ctl_contact_length_0&#45;&gt;NeighborhoodReporter_3_6413275295368505243_1 -->
<g id="edge45" class="edge">
<title>ctl_contact_length_0&#45;&gt;NeighborhoodReporter_3_6413275295368505243_1</title>
<path fill="none" stroke="#112c5f" stroke-width="2" d="M527.53,-542.56C510.08,-533.42 487.12,-521.39 464.97,-509.78"/>
<polygon fill="#112c5f" stroke="#112c5f" stroke-width="2" points="466.35,-506.55 455.87,-505.01 463.11,-512.75 466.35,-506.55"/>
</g>
<!-- hits_received_0 -->
<g id="node15" class="node">
<title>hits_received_0</title>
<ellipse fill="#d3d247" stroke="black" cx="674" cy="-122" rx="55.8" ry="18"/>
<ellipse fill="none" stroke="black" cx="674" cy="-122" rx="59.79" ry="22"/>
<text text-anchor="middle" x="674" y="-118.3" font-family="Times,serif" font-size="14.00">hits.received</text>
</g>
<!-- hits_received_0&#45;&gt;Gnuplotter_0_60 -->
<g id="edge47" class="edge">
<title>hits_received_0&#45;&gt;Gnuplotter_0_60</title>
<path fill="none" stroke="#112c5f" stroke-width="2" d="M658.29,-100.4C651.74,-91.8 643.98,-81.63 636.76,-72.16"/>
<polygon fill="#112c5f" stroke="#112c5f" stroke-width="2" points="639.44,-69.9 630.59,-64.07 633.87,-74.15 639.44,-69.9"/>
</g>
<!-- hits_received_0&#45;&gt;Logger_0_60 -->
<g id="edge48" class="edge">
<title>hits_received_0&#45;&gt;Logger_0_60</title>
<path fill="none" stroke="#112c5f" stroke-width="2" d="M720.09,-107.88C775.26,-92.17 866.6,-66.17 917.6,-51.65"/>
<polygon fill="#112c5f" stroke="#112c5f" stroke-width="2" points="918.58,-55.01 927.24,-48.9 916.67,-48.27 918.58,-55.01"/>
</g>
<!-- maturity_0 -->
<g id="node16" class="node">
<title>maturity_0</title>
<ellipse fill="#d3d247" stroke="black" cx="551" cy="-122" rx="40.9" ry="18"/>
<ellipse fill="none" stroke="black" cx="551" cy="-122" rx="44.89" ry="22"/>
<text text-anchor="middle" x="551" y="-118.3" font-family="Times,serif" font-size="14.00">maturity</text>
</g>
<!-- maturity_0&#45;&gt;Gnuplotter_0_60 -->
<g id="edge52" class="edge">
<title>maturity_0&#45;&gt;Gnuplotter_0_60</title>
<path fill="none" stroke="#112c5f" stroke-width="2" d="M566.33,-101.22C573.11,-92.48 581.24,-81.98 588.81,-72.21"/>
<polygon fill="#112c5f" stroke="#112c5f" stroke-width="2" points="591.63,-74.29 594.99,-64.24 586.1,-70 591.63,-74.29"/>
</g>
<!-- maturity_0&#45;&gt;Logger_0_60 -->
<g id="edge53" class="edge">
<title>maturity_0&#45;&gt;Logger_0_60</title>
<path fill="none" stroke="#112c5f" stroke-width="2" d="M584.06,-106.92C590.9,-104.36 598.11,-101.9 605,-100 716.42,-69.29 852.45,-51.91 917.22,-44.81"/>
<polygon fill="#112c5f" stroke="#112c5f" stroke-width="2" points="917.79,-48.27 927.36,-43.72 917.04,-41.31 917.79,-48.27"/>
</g>
<!-- time_0 -->
<g id="node17" class="node">
<title>time_0</title>
<g id="a_node17"><a xlink:href="morph://MorpheusModel/Time/TimeSymbol" xlink:title="time">
<ellipse fill="#d3d247" stroke="black" cx="43" cy="-380" rx="27" ry="18"/>
<text text-anchor="middle" x="43" y="-376.3" font-family="Times,serif" font-size="14.00">time</text>
</a>
</g>
</g>
<!-- Event_5_17479336099849358826_1 -->
<g id="node38" class="node">
<title>Event_5_17479336099849358826_1</title>
<g id="a_node38"><a xlink:href="morph://MorpheusModel/CellTypes/CellType[2]/Event[0]" xlink:title="&lt;TABLE&gt;">
<polygon fill="#fffea3" stroke="transparent" points="375.5,-323 316.5,-323 316.5,-252 375.5,-252 375.5,-323"/>
<text text-anchor="start" x="327" y="-306.5" font-family="times" font-size="15.00">Event</text>
<text text-anchor="start" x="321" y="-284.5" font-family="times" font-style="italic" font-size="15.00">&quot;hitting&quot;</text>
<text text-anchor="start" x="342" y="-260.5" font-family="times" font-size="15.00">1</text>
<polygon fill="black" stroke="black" points="317,-275.5 317,-275.5 376,-275.5 376,-275.5 317,-275.5"/>
<polygon fill="none" stroke="black" points="316.5,-252 316.5,-323 375.5,-323 375.5,-252 316.5,-252"/>
</a>
</g>
</g>
<!-- time_0&#45;&gt;Event_5_17479336099849358826_1 -->
<g id="edge58" class="edge">
<title>time_0&#45;&gt;Event_5_17479336099849358826_1</title>
<path fill="none" stroke="#112c5f" stroke-width="2" d="M62.33,-367.27C66.68,-365.13 71.39,-363.2 76,-362 100.53,-355.6 281.97,-366.55 304,-354 313.16,-348.78 320.64,-340.65 326.61,-331.88"/>
<polygon fill="#112c5f" stroke="#112c5f" stroke-width="2" points="329.61,-333.69 331.88,-323.34 323.65,-330.01 329.61,-333.69"/>
</g>
<!-- Event_6_5169723864257852615_60 -->
<g id="node39" class="node">
<title>Event_6_5169723864257852615_60</title>
<g id="a_node39"><a xlink:href="morph://MorpheusModel/CellTypes/CellType[2]/Event[1]" xlink:title="&lt;TABLE&gt;">
<polygon fill="#fffea3" stroke="transparent" points="174,-323 96,-323 96,-252 174,-252 174,-323"/>
<text text-anchor="start" x="115.5" y="-306.5" font-family="times" font-size="15.00">Event</text>
<text text-anchor="start" x="100" y="-284.5" font-family="times" font-style="italic" font-size="15.00">&quot;maturing&quot;</text>
<text text-anchor="start" x="126.5" y="-260.5" font-family="times" font-size="15.00">60</text>
<polygon fill="black" stroke="black" points="96,-275.5 96,-275.5 174,-275.5 174,-275.5 96,-275.5"/>
<polygon fill="none" stroke="black" points="96,-252 96,-323 174,-323 174,-252 96,-252"/>
</a>
</g>
</g>
<!-- time_0&#45;&gt;Event_6_5169723864257852615_60 -->
<g id="edge59" class="edge">
<title>time_0&#45;&gt;Event_6_5169723864257852615_60</title>
<path fill="none" stroke="#112c5f" stroke-width="2" d="M57.78,-364.46C67.21,-355.19 79.95,-342.66 92.36,-330.45"/>
<polygon fill="#112c5f" stroke="#112c5f" stroke-width="2" points="94.92,-332.83 99.6,-323.33 90.01,-327.84 94.92,-332.83"/>
</g>
<!-- Event_7_6541285283244471065_60 -->
<g id="node40" class="node">
<title>Event_7_6541285283244471065_60</title>
<g id="a_node40"><a xlink:href="morph://MorpheusModel/CellTypes/CellType[2]/Event[2]" xlink:title="&lt;TABLE&gt;">
<polygon fill="#fffea3" stroke="transparent" points="291.5,-323 198.5,-323 198.5,-252 291.5,-252 291.5,-323"/>
<text text-anchor="start" x="226" y="-306.5" font-family="times" font-size="15.00">Event</text>
<text text-anchor="start" x="203" y="-284.5" font-family="times" font-style="italic" font-size="15.00">&quot;immaturing&quot;</text>
<text text-anchor="start" x="237" y="-260.5" font-family="times" font-size="15.00">60</text>
<polygon fill="black" stroke="black" points="199,-275.5 199,-275.5 292,-275.5 292,-275.5 199,-275.5"/>
<polygon fill="none" stroke="black" points="198.5,-252 198.5,-323 291.5,-323 291.5,-252 198.5,-252"/>
</a>
</g>
</g>
<!-- time_0&#45;&gt;Event_7_6541285283244471065_60 -->
<g id="edge60" class="edge">
<title>time_0&#45;&gt;Event_7_6541285283244471065_60</title>
<path fill="none" stroke="#112c5f" stroke-width="2" d="M62.36,-367.4C66.71,-365.26 71.41,-363.29 76,-362 99.59,-355.36 163.99,-364.77 186,-354 197.06,-348.59 207,-340.11 215.43,-331.02"/>
<polygon fill="#112c5f" stroke="#112c5f" stroke-width="2" points="218.22,-333.14 222.14,-323.3 212.94,-328.55 218.22,-333.14"/>
</g>
<!-- Protrusion_1_1&#45;&gt;act_0 -->
<g id="edge12" class="edge">
<title>Protrusion_1_1&#45;&gt;act_0</title>
<path fill="none" stroke="#8f100d" stroke-width="3" d="M1134.84,-719.92C1141.95,-716.97 1149.63,-714.16 1157,-712 1193.78,-701.23 1209.29,-717.47 1242,-697.5 1251.94,-691.43 1260.06,-681.51 1266.81,-672.26"/>
<polygon fill="#8f100d" stroke="#8f100d" stroke-width="3" points="1269.68,-674.26 1272.63,-664.08 1263.98,-670.2 1269.68,-674.26"/>
</g>
<!-- NeighborhoodReporter_1_17479379513406501179_1&#45;&gt;ctl_contact_length_0 -->
<g id="edge10" class="edge">
<title>NeighborhoodReporter_1_17479379513406501179_1&#45;&gt;ctl_contact_length_0</title>
<path fill="none" stroke="#8f100d" stroke-width="3" d="M697.4,-612.91C691.55,-610.15 685.7,-607.47 680,-605 656.74,-594.9 630.41,-585.07 608.1,-577.18"/>
<polygon fill="#8f100d" stroke="#8f100d" stroke-width="3" points="609.07,-573.81 598.48,-573.81 606.76,-580.42 609.07,-573.81"/>
</g>
<!-- cell_center_1 -->
<g id="node20" class="node">
<title>cell_center_1</title>
<ellipse fill="#b5b426" stroke="black" cx="831" cy="-738" rx="47.39" ry="18"/>
<text text-anchor="middle" x="831" y="-734.3" font-family="Times,serif" font-size="14.00">cell.center</text>
</g>
<!-- cell_center_1&#45;&gt;cell_center_0 -->
<g id="edge18" class="edge">
<title>cell_center_1&#45;&gt;cell_center_0</title>
<path fill="none" stroke="#38568c" stroke-dasharray="5,2" d="M841.05,-720.4C845.04,-713.46 849.5,-705.22 853,-697.5 886.33,-623.94 915.44,-532.27 927.75,-491.61"/>
</g>
<!-- cell_center_1&#45;&gt;NeighborhoodReporter_1_17479379513406501179_1 -->
<g id="edge17" class="edge">
<title>cell_center_1&#45;&gt;NeighborhoodReporter_1_17479379513406501179_1</title>
<path fill="none" stroke="#112c5f" stroke-width="2" d="M818.4,-720.54C812.18,-712.42 804.35,-702.2 796.6,-692.07"/>
<polygon fill="#112c5f" stroke="#112c5f" stroke-width="2" points="799.28,-689.82 790.42,-684 793.72,-694.07 799.28,-689.82"/>
</g>
<!-- cell_id_1 -->
<g id="node21" class="node">
<title>cell_id_1</title>
<ellipse fill="#d3d247" stroke="black" cx="1018" cy="-738" rx="32.49" ry="18"/>
<text text-anchor="middle" x="1018" y="-734.3" font-family="Times,serif" font-size="14.00">cell.id</text>
</g>
<!-- cell_id_1&#45;&gt;cell_id_0 -->
<g id="edge25" class="edge">
<title>cell_id_1&#45;&gt;cell_id_0</title>
<path fill="none" stroke="#38568c" stroke-dasharray="5,2" d="M1036.04,-722.75C1042.07,-718.65 1049.04,-714.59 1056,-712 1102.21,-694.79 1122.81,-721.3 1166,-697.5 1177.78,-691.01 1187.53,-679.54 1194.46,-669.45"/>
</g>
<!-- cell_type_1 -->
<g id="node22" class="node">
<title>cell_type_1</title>
<g id="a_node22"><a xlink:href="morph://MorpheusModel/CellTypes/CellType[0]" xlink:title="cell.type">
<ellipse fill="#d3d247" stroke="black" cx="725" cy="-738" rx="40.89" ry="18"/>
<text text-anchor="middle" x="725" y="-734.3" font-family="Times,serif" font-size="14.00">cell.type</text>
</a>
</g>
</g>
<!-- cell_type_1&#45;&gt;cell_type_0 -->
<g id="edge31" class="edge">
<title>cell_type_1&#45;&gt;cell_type_0</title>
<path fill="none" stroke="#38568c" stroke-dasharray="5,2" d="M704.25,-722.35C682.6,-707.08 648.67,-683.14 625.67,-666.91"/>
</g>
<!-- ctl_attn_1 -->
<g id="node23" class="node">
<title>ctl_attn_1</title>
<g id="a_node23"><a xlink:href="morph://MorpheusModel/CellTypes/CellType[0]/Property" xlink:title="ctl.attn">
<ellipse fill="#d3d247" stroke="black" cx="932" cy="-738" rx="35.19" ry="18"/>
<text text-anchor="middle" x="932" y="-734.3" font-family="Times,serif" font-size="14.00">ctl.attn</text>
</a>
</g>
</g>
<!-- ctl_attn_1&#45;&gt;ctl_attn_0 -->
<g id="edge39" class="edge">
<title>ctl_attn_1&#45;&gt;ctl_attn_0</title>
<path fill="none" stroke="#38568c" stroke-dasharray="5,2" d="M920.91,-720.75C901.41,-690.52 863,-622.99 863,-560 863,-560 863,-560 863,-468.5 863,-411 863,-343.17 863,-309.56"/>
</g>
<!-- CellDeath_3_1 -->
<g id="node24" class="node">
<title>CellDeath_3_1</title>
<g id="a_node24"><a xlink:href="morph://MorpheusModel/CellTypes/CellType[2]/CellDeath" xlink:title="&lt;TABLE&gt;">
<polygon fill="#fffea3" stroke="transparent" points="390.5,-672.5 317.5,-672.5 317.5,-624.5 390.5,-624.5 390.5,-672.5"/>
<text text-anchor="start" x="322" y="-656.5" font-family="times" font-size="15.00">CellDeath</text>
<text text-anchor="start" x="350" y="-633.5" font-family="times" font-size="15.00">1</text>
<polygon fill="black" stroke="black" points="318,-648.5 318,-648.5 391,-648.5 391,-648.5 318,-648.5"/>
<polygon fill="none" stroke="black" points="317.5,-624.5 317.5,-672.5 390.5,-672.5 390.5,-624.5 317.5,-624.5"/>
</a>
</g>
</g>
<!-- cell_center_3 -->
<g id="node27" class="node">
<title>cell_center_3</title>
<ellipse fill="#b5b426" stroke="black" cx="390" cy="-559" rx="47.39" ry="18"/>
<text text-anchor="middle" x="390" y="-555.3" font-family="Times,serif" font-size="14.00">cell.center</text>
</g>
<!-- CellDeath_3_1&#45;&gt;cell_center_3 -->
<g id="edge5" class="edge">
<title>CellDeath_3_1&#45;&gt;cell_center_3</title>
<path fill="none" stroke="#8f100d" stroke-width="3" d="M363.65,-624.05C368.43,-612.42 374.23,-598.34 379.16,-586.34"/>
<polygon fill="#8f100d" stroke="#8f100d" stroke-width="3" points="382.5,-587.43 383.07,-576.85 376.02,-584.77 382.5,-587.43"/>
</g>
<!-- ctl_attn_3 -->
<g id="node30" class="node">
<title>ctl_attn_3</title>
<g id="a_node30"><a xlink:href="morph://MorpheusModel/CellTypes/CellType[2]/Property[3]" xlink:title="ctl.attn">
<ellipse fill="#d3d247" stroke="black" cx="143" cy="-380" rx="35.19" ry="18"/>
<text text-anchor="middle" x="143" y="-376.3" font-family="Times,serif" font-size="14.00">ctl.attn</text>
</a>
</g>
</g>
<!-- NeighborhoodReporter_3_6413275295368505243_1&#45;&gt;ctl_attn_3 -->
<g id="edge11" class="edge">
<title>NeighborhoodReporter_3_6413275295368505243_1&#45;&gt;ctl_attn_3</title>
<path fill="none" stroke="#8f100d" stroke-width="3" d="M309.81,-440.09C266.47,-424.74 214.99,-406.5 180.8,-394.39"/>
<polygon fill="#8f100d" stroke="#8f100d" stroke-width="3" points="181.8,-391.03 171.2,-390.99 179.46,-397.63 181.8,-391.03"/>
</g>
<!-- cell_center_3&#45;&gt;cell_center_0 -->
<g id="edge20" class="edge">
<title>cell_center_3&#45;&gt;cell_center_0</title>
<path fill="none" stroke="#38568c" stroke-dasharray="5,2" d="M423.22,-545.97C429.09,-544.12 435.19,-542.37 441,-541 600.46,-503.35 793.98,-482.81 883.76,-474.68"/>
</g>
<!-- cell_center_3&#45;&gt;NeighborhoodReporter_3_6413275295368505243_1 -->
<g id="edge19" class="edge">
<title>cell_center_3&#45;&gt;NeighborhoodReporter_3_6413275295368505243_1</title>
<path fill="none" stroke="#112c5f" stroke-width="2" d="M390,-540.71C390,-533.33 390,-524.34 390,-515.29"/>
<polygon fill="#112c5f" stroke="#112c5f" stroke-width="2" points="393.5,-515.13 390,-505.13 386.5,-515.13 393.5,-515.13"/>
</g>
<!-- cell_id_3 -->
<g id="node28" class="node">
<title>cell_id_3</title>
<ellipse fill="#d3d247" stroke="black" cx="436" cy="-738" rx="32.49" ry="18"/>
<text text-anchor="middle" x="436" y="-734.3" font-family="Times,serif" font-size="14.00">cell.id</text>
</g>
<!-- cell_id_3&#45;&gt;cell_id_0 -->
<g id="edge26" class="edge">
<title>cell_id_3&#45;&gt;cell_id_0</title>
<path fill="none" stroke="#38568c" stroke-dasharray="5,2" d="M452.83,-722.29C458.54,-718.17 465.2,-714.21 472,-712 545.36,-688.18 1096.5,-730.94 1166,-697.5 1178.12,-691.67 1187.88,-680.22 1194.73,-669.97"/>
</g>
<!-- cell_type_3 -->
<g id="node29" class="node">
<title>cell_type_3</title>
<g id="a_node29"><a xlink:href="morph://MorpheusModel/CellTypes/CellType[2]" xlink:title="cell.type">
<ellipse fill="#d3d247" stroke="black" cx="345" cy="-738" rx="40.89" ry="18"/>
<text text-anchor="middle" x="345" y="-734.3" font-family="Times,serif" font-size="14.00">cell.type</text>
</a>
</g>
</g>
<!-- cell_type_3&#45;&gt;cell_type_0 -->
<g id="edge32" class="edge">
<title>cell_type_3&#45;&gt;cell_type_0</title>
<path fill="none" stroke="#38568c" stroke-dasharray="5,2" d="M368.8,-723.29C376.89,-719.12 386.14,-714.88 395,-712 432.28,-699.88 444.27,-708.12 482,-697.5 512.45,-688.93 545.73,-675.1 569.34,-664.48"/>
</g>
<!-- ctl_attn_3&#45;&gt;ctl_attn_0 -->
<g id="edge43" class="edge">
<title>ctl_attn_3&#45;&gt;ctl_attn_0</title>
<path fill="none" stroke="#38568c" stroke-dasharray="5,2" d="M172.03,-369.87C182.89,-366.83 195.41,-363.77 207,-362 286.6,-349.82 307.81,-361.29 388,-354 551.94,-339.11 746.04,-308.14 825.88,-294.82"/>
</g>
<!-- ctl_attn_3&#45;&gt;Event_5_17479336099849358826_1 -->
<g id="edge40" class="edge">
<title>ctl_attn_3&#45;&gt;Event_5_17479336099849358826_1</title>
<path fill="none" stroke="#112c5f" stroke-width="2" d="M169.86,-368.26C176.95,-365.82 184.68,-363.5 192,-362 216.44,-356.98 282.55,-366.74 304,-354 313.07,-348.62 320.51,-340.43 326.47,-331.64"/>
<polygon fill="#112c5f" stroke="#112c5f" stroke-width="2" points="329.47,-333.46 331.74,-323.11 323.51,-329.78 329.47,-333.46"/>
</g>
<!-- ctl_attn_3&#45;&gt;Event_6_5169723864257852615_60 -->
<g id="edge41" class="edge">
<title>ctl_attn_3&#45;&gt;Event_6_5169723864257852615_60</title>
<path fill="none" stroke="#112c5f" stroke-width="2" d="M141.5,-361.98C140.77,-353.76 139.86,-343.47 138.95,-333.22"/>
<polygon fill="#112c5f" stroke="#112c5f" stroke-width="2" points="142.42,-332.72 138.06,-323.06 135.45,-333.33 142.42,-332.72"/>
</g>
<!-- ctl_attn_3&#45;&gt;Event_7_6541285283244471065_60 -->
<g id="edge42" class="edge">
<title>ctl_attn_3&#45;&gt;Event_7_6541285283244471065_60</title>
<path fill="none" stroke="#112c5f" stroke-width="2" d="M167.08,-366.76C173.49,-363.04 180.24,-358.68 186,-354 194.55,-347.06 202.96,-338.84 210.62,-330.62"/>
<polygon fill="#112c5f" stroke="#112c5f" stroke-width="2" points="213.32,-332.86 217.44,-323.1 208.13,-328.15 213.32,-332.86"/>
</g>
<!-- hit_chance_3 -->
<g id="node31" class="node">
<title>hit_chance_3</title>
<g id="a_node31"><a xlink:href="morph://MorpheusModel/CellTypes/CellType[2]/Constant[0]" xlink:title="hit.chance">
<ellipse fill="#d3d247" stroke="black" cx="349" cy="-380" rx="46.59" ry="18"/>
<text text-anchor="middle" x="349" y="-376.3" font-family="Times,serif" font-size="14.00">hit.chance</text>
</a>
</g>
</g>
<!-- hit_chance_3&#45;&gt;Event_5_17479336099849358826_1 -->
<g id="edge46" class="edge">
<title>hit_chance_3&#45;&gt;Event_5_17479336099849358826_1</title>
<path fill="none" stroke="#112c5f" stroke-width="2" d="M348.44,-361.98C348.16,-353.76 347.82,-343.47 347.48,-333.22"/>
<polygon fill="#112c5f" stroke="#112c5f" stroke-width="2" points="350.98,-332.94 347.15,-323.06 343.98,-333.17 350.98,-332.94"/>
</g>
<!-- hits_received_3 -->
<g id="node32" class="node">
<title>hits_received_3</title>
<g id="a_node32"><a xlink:href="morph://MorpheusModel/CellTypes/CellType[2]/Property[1]" xlink:title="hits.received">
<ellipse fill="#d3d247" stroke="black" cx="399" cy="-198" rx="55.79" ry="18"/>
<text text-anchor="middle" x="399" y="-194.3" font-family="Times,serif" font-size="14.00">hits.received</text>
</a>
</g>
</g>
<!-- hits_received_3&#45;&gt;hits_received_0 -->
<g id="edge49" class="edge">
<title>hits_received_3&#45;&gt;hits_received_0</title>
<path fill="none" stroke="#38568c" stroke-dasharray="5,2" d="M429.7,-182.79C438.97,-178.88 449.27,-174.92 459,-172 522.27,-152.97 540.86,-159.86 605,-144 613.14,-141.99 621.75,-139.59 630.02,-137.14"/>
</g>
<!-- is_dead_3 -->
<g id="node33" class="node">
<title>is_dead_3</title>
<g id="a_node33"><a xlink:href="morph://MorpheusModel/CellTypes/CellType[2]/Property[2]" xlink:title="is.dead">
<ellipse fill="#d3d247" stroke="black" cx="250" cy="-738" rx="36" ry="18"/>
<text text-anchor="middle" x="250" y="-734.3" font-family="Times,serif" font-size="14.00">is.dead</text>
</a>
</g>
</g>
<!-- is_dead_3&#45;&gt;CellDeath_3_1 -->
<g id="edge50" class="edge">
<title>is_dead_3&#45;&gt;CellDeath_3_1</title>
<path fill="none" stroke="#112c5f" stroke-width="2" d="M267.64,-722.16C281.61,-710.4 301.57,-693.61 318.79,-679.13"/>
<polygon fill="#112c5f" stroke="#112c5f" stroke-width="2" points="321.07,-681.78 326.47,-672.66 316.56,-676.42 321.07,-681.78"/>
</g>
<!-- is_dead_3&#45;&gt;Event_5_17479336099849358826_1 -->
<g id="edge51" class="edge">
<title>is_dead_3&#45;&gt;Event_5_17479336099849358826_1</title>
<path fill="none" stroke="#112c5f" stroke-width="2" d="M250.72,-719.85C251.56,-694.62 252.34,-646.03 248,-605 242.24,-550.54 169.9,-402.28 207,-362 221.65,-346.09 285.47,-365.15 304,-354 313.04,-348.57 320.47,-340.36 326.43,-331.57"/>
<polygon fill="#112c5f" stroke="#112c5f" stroke-width="2" points="329.42,-333.38 331.7,-323.04 323.47,-329.7 329.42,-333.38"/>
</g>
<!-- maturity_3 -->
<g id="node34" class="node">
<title>maturity_3</title>
<g id="a_node34"><a xlink:href="morph://MorpheusModel/CellTypes/CellType[2]/Property[5]" xlink:title="maturity">
<ellipse fill="#d3d247" stroke="black" cx="258" cy="-198" rx="40.89" ry="18"/>
<text text-anchor="middle" x="258" y="-194.3" font-family="Times,serif" font-size="14.00">maturity</text>
</a>
</g>
</g>
<!-- maturity_3&#45;&gt;maturity_0 -->
<g id="edge55" class="edge">
<title>maturity_3&#45;&gt;maturity_0</title>
<path fill="none" stroke="#38568c" stroke-dasharray="5,2" d="M288.86,-186.11C302.59,-181.45 319.01,-176.15 334,-172 394.67,-155.21 466.06,-139.94 509.92,-131.05"/>
</g>
<!-- maturity_3&#45;&gt;Event_5_17479336099849358826_1 -->
<g id="edge54" class="edge">
<title>maturity_3&#45;&gt;Event_5_17479336099849358826_1</title>
<path fill="none" stroke="#112c5f" stroke-width="2" d="M274.24,-214.76C283.08,-223.37 294.18,-234.23 304,-244 305.61,-245.61 307.26,-247.25 308.92,-248.91"/>
<polygon fill="#112c5f" stroke="#112c5f" stroke-width="2" points="306.7,-251.64 316.24,-256.26 311.66,-246.7 306.7,-251.64"/>
</g>
<!-- minhit_3 -->
<g id="node35" class="node">
<title>minhit_3</title>
<g id="a_node35"><a xlink:href="morph://MorpheusModel/CellTypes/CellType[2]/Constant[4]" xlink:title="minhit">
<ellipse fill="#d3d247" stroke="black" cx="250" cy="-380" rx="34.39" ry="18"/>
<text text-anchor="middle" x="250" y="-376.3" font-family="Times,serif" font-size="14.00">minhit</text>
</a>
</g>
</g>
<!-- minhit_3&#45;&gt;Event_5_17479336099849358826_1 -->
<g id="edge56" class="edge">
<title>minhit_3&#45;&gt;Event_5_17479336099849358826_1</title>
<path fill="none" stroke="#112c5f" stroke-width="2" d="M278.15,-369.55C287.06,-365.66 296.52,-360.52 304,-354 311.25,-347.67 317.72,-339.8 323.28,-331.72"/>
<polygon fill="#112c5f" stroke="#112c5f" stroke-width="2" points="326.25,-333.58 328.74,-323.29 320.37,-329.78 326.25,-333.58"/>
</g>
<!-- nhits_3 -->
<g id="node36" class="node">
<title>nhits_3</title>
<g id="a_node36"><a xlink:href="morph://MorpheusModel/CellTypes/CellType[2]/Constant[3]" xlink:title="nhits">
<ellipse fill="#d3d247" stroke="black" cx="442" cy="-380" rx="27.9" ry="18"/>
<text text-anchor="middle" x="442" y="-376.3" font-family="Times,serif" font-size="14.00">nhits</text>
</a>
</g>
</g>
<!-- nhits_3&#45;&gt;Event_5_17479336099849358826_1 -->
<g id="edge57" class="edge">
<title>nhits_3&#45;&gt;Event_5_17479336099849358826_1</title>
<path fill="none" stroke="#112c5f" stroke-width="2" d="M420.28,-368.49C415.3,-366.23 410.01,-363.94 405,-362 394.12,-357.78 388.92,-361.52 380,-354 373.03,-348.12 367.3,-340.44 362.67,-332.42"/>
<polygon fill="#112c5f" stroke="#112c5f" stroke-width="2" points="365.64,-330.54 357.9,-323.3 359.44,-333.78 365.64,-330.54"/>
</g>
<!-- vol_target_3 -->
<g id="node37" class="node">
<title>vol_target_3</title>
<g id="a_node37"><a xlink:href="morph://MorpheusModel/CellTypes/CellType[2]/Property[4]" xlink:title="vol.target">
<ellipse fill="#d3d247" stroke="black" cx="152" cy="-738" rx="44.39" ry="18"/>
<text text-anchor="middle" x="152" y="-734.3" font-family="Times,serif" font-size="14.00">vol.target</text>
</a>
</g>
</g>
<!-- vol_target_3&#45;&gt;VolumeConstraint_3 -->
<g id="edge61" class="edge">
<title>vol_target_3&#45;&gt;VolumeConstraint_3</title>
<path fill="none" stroke="#112c5f" stroke-width="2" d="M153.58,-719.71C154.7,-707.49 156.22,-690.85 157.5,-676.84"/>
<polygon fill="#112c5f" stroke="#112c5f" stroke-width="2" points="161,-677.03 158.42,-666.75 154.03,-676.39 161,-677.03"/>
</g>
<!-- Event_5_17479336099849358826_1&#45;&gt;hits_received_3 -->
<g id="edge6" class="edge">
<title>Event_5_17479336099849358826_1&#45;&gt;hits_received_3</title>
<path fill="none" stroke="#8f100d" stroke-width="3" d="M366.95,-251.92C372.47,-242.8 378.33,-233.12 383.51,-224.57"/>
<polygon fill="#8f100d" stroke="#8f100d" stroke-width="3" points="386.63,-226.18 388.82,-215.81 380.64,-222.55 386.63,-226.18"/>
</g>
<!-- Event_5_17479336099849358826_1&#45;&gt;is_dead_3 -->
<g id="edge7" class="edge">
<title>Event_5_17479336099849358826_1&#45;&gt;is_dead_3</title>
<path fill="none" stroke="#8f100d" stroke-width="3" d="M331.87,-323.32C325.23,-335.14 316.08,-347.09 304,-354 284.22,-365.32 114.8,-345.57 99,-362 56.03,-406.68 215.03,-546.67 236,-605 248.4,-639.5 250.8,-682.09 250.83,-709.4"/>
<polygon fill="#8f100d" stroke="#8f100d" stroke-width="3" points="247.33,-709.72 250.73,-719.76 254.33,-709.79 247.33,-709.72"/>
</g>
<!-- Event_6_5169723864257852615_60&#45;&gt;maturity_3 -->
<g id="edge8" class="edge">
<title>Event_6_5169723864257852615_60&#45;&gt;maturity_3</title>
<path fill="none" stroke="#8f100d" stroke-width="3" d="M174.11,-253.01C178.07,-249.89 182.08,-246.84 186,-244 198.49,-234.96 212.79,-225.79 225.35,-218.11"/>
<polygon fill="#8f100d" stroke="#8f100d" stroke-width="3" points="227.38,-220.97 234.12,-212.81 223.76,-214.98 227.38,-220.97"/>
</g>
<!-- Event_7_6541285283244471065_60&#45;&gt;maturity_3 -->
<g id="edge9" class="edge">
<title>Event_7_6541285283244471065_60&#45;&gt;maturity_3</title>
<path fill="none" stroke="#8f100d" stroke-width="3" d="M250.14,-251.92C251.4,-243.41 252.74,-234.43 253.94,-226.32"/>
<polygon fill="#8f100d" stroke="#8f100d" stroke-width="3" points="257.42,-226.69 255.43,-216.29 250.5,-225.66 257.42,-226.69"/>
</g>
<!-- cell_center_4 -->
<g id="node41" class="node">
<title>cell_center_4</title>
<ellipse fill="#b5b426" stroke="black" cx="1408" cy="-738" rx="47.39" ry="18"/>
<text text-anchor="middle" x="1408" y="-734.3" font-family="Times,serif" font-size="14.00">cell.center</text>
</g>
<!-- cell_center_4&#45;&gt;cell_center_0 -->
<g id="edge21" class="edge">
<title>cell_center_4&#45;&gt;cell_center_0</title>
<path fill="none" stroke="#38568c" stroke-dasharray="5,2" d="M1401.35,-719.81C1389.67,-691.81 1362.87,-636.32 1323,-605 1218.76,-523.12 1061.34,-489.28 982.54,-476.85"/>
</g>
<!-- cell_id_4 -->
<g id="node42" class="node">
<title>cell_id_4</title>
<ellipse fill="#d3d247" stroke="black" cx="1310" cy="-738" rx="32.49" ry="18"/>
<text text-anchor="middle" x="1310" y="-734.3" font-family="Times,serif" font-size="14.00">cell.id</text>
</g>
<!-- cell_id_4&#45;&gt;cell_id_0 -->
<g id="edge27" class="edge">
<title>cell_id_4&#45;&gt;cell_id_0</title>
<path fill="none" stroke="#38568c" stroke-dasharray="5,2" d="M1288.69,-724.39C1277.09,-717.12 1262.75,-707.47 1251,-697.5 1240.72,-688.78 1230.36,-677.9 1222.17,-668.7"/>
</g>
<!-- cell_type_4 -->
<g id="node43" class="node">
<title>cell_type_4</title>
<g id="a_node43"><a xlink:href="morph://MorpheusModel/CellTypes/CellType[3]" xlink:title="cell.type">
<ellipse fill="#d3d247" stroke="black" cx="1219" cy="-738" rx="40.89" ry="18"/>
<text text-anchor="middle" x="1219" y="-734.3" font-family="Times,serif" font-size="14.00">cell.type</text>
</a>
</g>
</g>
<!-- cell_type_4&#45;&gt;cell_type_0 -->
<g id="edge33" class="edge">
<title>cell_type_4&#45;&gt;cell_type_0</title>
<path fill="none" stroke="#38568c" stroke-dasharray="5,2" d="M1192.94,-723.91C1182.36,-719.24 1169.87,-714.52 1158,-712 1052.31,-689.54 774.83,-730.68 672,-697.5 653.31,-691.47 635.02,-678.9 621.68,-668.13"/>
</g>
<!-- ctl_attn_4 -->
<g id="node44" class="node">
<title>ctl_attn_4</title>
<g id="a_node44"><a xlink:href="morph://MorpheusModel/CellTypes/CellType[3]/Property" xlink:title="ctl.attn">
<ellipse fill="#d3d247" stroke="black" cx="1509" cy="-738" rx="35.19" ry="18"/>
<text text-anchor="middle" x="1509" y="-734.3" font-family="Times,serif" font-size="14.00">ctl.attn</text>
</a>
</g>
</g>
<!-- ctl_attn_4&#45;&gt;ctl_attn_0 -->
<g id="edge44" class="edge">
<title>ctl_attn_4&#45;&gt;ctl_attn_0</title>
<path fill="none" stroke="#38568c" stroke-dasharray="5,2" d="M1496.47,-720.97C1474.42,-691.1 1431,-624.14 1431,-560 1431,-560 1431,-560 1431,-468.5 1431,-357.17 1029.44,-305.8 901.59,-292.27"/>
</g>
</g>
</svg>
